"Pos","Horse","Total Time","Distance Travelled","Early Pace","Pace","Sect Time","Sect Rank","Final %","Final % Rank","Energy Dist","Energy Dist Rank"
1,"Expressionist",62.53,1006.4,6.42,9.34,23.6,1,105.98,1,0.83,1
2,"Clan Royale",62.75,1005.6,8.45,9.4,23.83,2,105.33,2,0.84,2
3,"Praxeology",63.27,1005.7,10,10,24.45,5,103.51,6,0.89,5.5
4,"Amarillo Star",63.28,1006.2,3.92,7.83,24.1,3,105.03,3,0.85,3
5,"Endowed",63.42,1005.7,6.9,8.19,24.3,4,104.4,4,0.87,4
6,"Flash to Bang",63.65,1006.4,5.35,8.31,24.55,6,103.71,5,0.89,5.5
7,"Brunel’s Boy",79.36,1006,1,1,38.56,7,82.32,7,2.01,7
