"Pos","Horse","Total Time","Distance Travelled","Early Pace","Pace","Sect Time","Sect Rank","Final %","Final % Rank","Energy Dist","Energy Dist Rank"
1,"Louie De Palma",75.91,1207.6,10,10,24.41,5,103.66,6,0.9,6
2,"Vegas Boy",75.96,1206.7,6.96,6.02,24.27,1,104.33,2,0.88,2.5
3,"Royal Residence",76.19,1206.5,4.17,3.09,24.36,3,104.26,3,0.88,2.5
4,"Youkan",76.21,1208.9,1,1.42,24.3,2,104.54,1,0.88,2.5
5,"Diamond Dougal",76.2,1207.9,4.68,3.09,24.37,4,104.23,4,0.88,2.5
6,"Lightning Charlie",76.35,1207.2,6.2,5.4,24.63,7,103.33,7,0.91,7.5
7,"Squats",76.43,1207.6,1.76,1,24.5,6,103.99,5,0.89,5
8,"Equitation",76.53,1208,4.93,3.72,24.73,8,103.15,8,0.91,7.5
9,"Dream Catching",76.75,1207,8.86,7.91,25.15,9,101.72,9,0.95,9
10,"Pettochside",77.51,1207.2,7.72,6.44,25.84,11,99.99,11,1,11
11,"Tawny Port",77.5,1207.4,7.59,3.72,25.7,10,100.52,10,0.98,10
