"Pos","Horse","Total Time","Distance Travelled","Early Pace","Pace","Sect Time","Sect Rank","Final %","Final % Rank","Energy Dist","Energy Dist Rank"
1,"Motafaawit",89.26,1408.6,6.11,8.56,24.85,1,102.63,1,0.93,1.5
2,"Awe",89.33,1409.1,5.09,8.2,24.91,2,102.46,2,0.93,1.5
3,"Celebrity Dancer",90.23,1408.3,8.57,10,25.86,4,99.69,4,1.01,4
4,"Deep Intrigue",90.44,1408.7,10,10,26.07,5,99.12,5,1.03,5.5
5,"Dirty Rascal",90.46,1408.8,2.02,1,25.84,3,100.02,3,1,3
6,"Indomitable",90.79,1408.3,1,3.88,26.25,6,98.82,6,1.03,5.5
