"Pos","Horse","Total Time","Distance Travelled","Early Pace","Pace","Sect Time","Sect Rank","Final %","Final % Rank","Energy Dist","Energy Dist Rank"
1,"Burford Brown",60.62,1008.5,6.12,7.57,24.16,3,100.36,3,0.99,3.5
2,"Daschas",60.73,1007.2,7.36,7.57,24.27,4,100.09,5,1,5
3,"Gnaad",60.63,1007.3,4.8,4.65,23.93,1,101.35,2,0.96,2
4,"Indian Raj",60.94,1005.7,1,1,23.94,2,101.82,1,0.94,1
5,"Something Lucky",61.38,1007.9,5.66,5.5,24.75,7,99.2,7,1.03,7
6,"Our Oystercatcher",61.19,1006.1,9.3,8.3,24.79,8,98.73,10,1.04,9
7,"Iconic Knight",61.58,1007.6,2.09,1,24.58,5,100.21,4,0.99,3.5
8,"Human Nature",61.56,1006.6,6.59,6.23,24.99,9,98.54,11,1.05,11
9,"Tomily",61.71,1007.3,2.94,1.24,24.73,6,99.81,6,1.01,6
10,"Rio Ronaldo",61.76,1006,3.87,4.04,25.01,10,98.78,9,1.04,9
11,"George Dryden",61.92,1006.5,6.66,7.81,25.48,12,97.21,12,1.1,12
12,"Leo Minor",61.85,1008,4.65,3.07,25.02,11,98.88,8,1.04,9
13,"Glamorous Rocket",63.2,1005.9,10,10,26.94,13,93.84,13,1.24,13
