"Pos","Horse","Total Time","Distance Travelled","Early Pace","Pace","Sect Time","Sect Rank","Final %","Final % Rank","Energy Dist","Energy Dist Rank"
1,"Calyx",70.22,1208.9,6.69,7.84,22.87,1,102.35,1,0.93,1
2,"No Nonsense",70.88,1209.3,1,1,23.33,2,101.27,2,0.96,2
3,"Konchek",71.1,1208.3,4.92,3.74,23.63,4,100.3,4,0.99,4
4,"Pocket Dynamo",70.99,1209.7,10,10,23.73,6,99.72,7,1.01,7
5,"Signora Cabello",71.04,1207.8,5.17,3.4,23.56,3,100.51,3,0.98,3
6,"The Cruising Lord",71.24,1208.9,10,4.08,23.78,7,99.86,6,1,5.5
7,"Well Done Fox",71.17,1210.7,5.93,4.76,23.73,6,99.97,5,1,5.5
